Select and Load a Power System · PowerSystemCaseBuilder.jl
…
MatpowerTestSystems
PSIDSystems
PSIDTestSystems
PSISystems
PSITestSystems
PSSEParsingTestSystems
PSYTestSystems
SPISystems
Choose a category, or explore the SystemCategory documentation to learn about each category.
Use show_systems to see the name and description of the available PowerSystems.Systems in the selected category, e.g, PSISystems:

show_systems(PSISystems)

┌──────────────────────────────────┬────────────────────────────────────────────
│ Name                             │ Descriptor                                ⋯
├──────────────────────────────────┼────────────────────────────────────────────
│ 2Area 5 Bus System               │ PSI test system with two areas connected  ⋯
│ 5_bus_hydro_ed_sys               │ 5-Bus hydro economic dispatch data        ⋯
│ 5_bus_hydro_ed_sys_with_targets  │ 5-Bus hydro economic dispatch data with e ⋯
│ 5_bus_hydro_uc_sys               │ 5-Bus hydro unit commitment data          ⋯
│ 5_bus_hydro_uc_sys_with_targets  │ 5-Bus hydro unit commitment data with ene ⋯
│ 5_bus_hydro_wk_sys               │ 5-Bus hydro system for weekly dispatch    ⋯
│ 5_bus_hydro_wk_sys_with_targets  │ 5-Bus hydro system for weekly dispatch wi ⋯
│ 5_bus_matpower_AGC               │ matpower 5-Bus system with AGC time serie ⋯
│ 5_bus_matpower_DA                │ matpower 5-Bus system with DA time series ⋯
│ 5_bus_matpower_RT                │ matpower 5-Bus system with RT time series ⋯
│ AC_TWO_RTO_RTS_1Hr_sys           │ Two Area RTO System Connected via AC with ⋯
│ AC_TWO_RTO_RTS_5min_sys          │ Two Area RTO System Connected via AC with ⋯
│ HVDC_TWO_RTO_RTS_1Hr_sys         │ Two Area RTO System Connected via HVDC wi ⋯
│ HVDC_TWO_RTO_RTS_5min_sys        │ Two Area RTO System Connected via HVDC wi ⋯
│ MTHVDC_two_RTS_DA_sys_noForecast │ Two RTS systems connected by two multi-te ⋯
│ RTS_GMLC_DA_sys                  │ RTS-GMLC Full system from git repo for da ⋯
│ ⋮                                │ ⋮                                         ⋱
└──────────────────────────────────┴────────────────────────────────────────────
                                                    1 column and 12 rows omitted
…
