Full Catalog of Systems · PowerSystemCaseBuilder.jl
…
GitHub
Full Catalog of Systems

Category: MatpowerTestSystems

┌──────────────────────────────┬──────────────────────────────────┐
│ Name                         │ Descriptor                       │
├──────────────────────────────┼──────────────────────────────────┤
│ matpower_ACTIVSg10k_sys      │ ACTIVSg10k Test system           │
│ matpower_ACTIVSg2000_sys     │ MATPOWER ACTIVSg2000 Test system │
│ matpower_RTS_GMLC_sys        │ Matpower RTS-GMLC Test system    │
│ matpower_case14_sys          │ Matpower Test system             │
│ matpower_case24_sys          │ Matpower Test system             │
│ matpower_case2_sys           │ Matpower Test system             │
│ matpower_case30_sys          │ Matpower Test system             │
│ matpower_case3_tnep_sys      │ Matpower Test system             │
│ matpower_case5_asym_sys      │ Matpower Test system             │
│ matpower_case5_dc_sys        │ Matpower Test system             │
│ matpower_case5_gap_sys       │ Matpower Test system             │
│ matpower_case5_pwlc_sys      │ Matpower Test system             │
│ matpower_case5_re_sys        │ Matpower Test system             │
│ matpower_case5_re_uc_pwl_sys │ Matpower Test system             │
│ matpower_case5_re_uc_sys     │ Matpower Test system             │
│ matpower_case5_strg_sys      │ Matpower Test system             │
│ ⋮                            │ ⋮                                │
└──────────────────────────────┴──────────────────────────────────┘
                                                     7 rows omitted
…
Category: PSIDTestSystems

┌───────────────────────────────┬───────────────────────────────────────────────
│ Name                          │ Descriptor                                   ⋯
├───────────────────────────────┼───────────────────────────────────────────────
│ psid_psse_test_avr            │ PSID AVR Test Cases for PSSE Validation      ⋯
│ psid_psse_test_constantI_load │ PSID Constant Current Load Test Case         ⋯
│ psid_psse_test_constantP_load │ PSID Constant Power Load Test Case           ⋯
│ psid_psse_test_exp_load       │ PSID Exponential Load Test Case              ⋯
│ psid_psse_test_gen            │ PSID GEN Test Cases for PSSE Validation      ⋯
│ psid_psse_test_pss            │ PSID PSS Test Cases for PSSE Validation      ⋯
│ psid_psse_test_tg             │ PSID TG Test Cases for PSSE Validation       ⋯
│ psid_test_3rd_indmotor        │ PSID System with 3rd-order Induction Motor T ⋯
│ psid_test_5th_indmotor        │ PSID System with 5th-order Induction Motor T ⋯
│ psid_test_droop_inverter      │ PSID Two Bus Droop GFM Inverter Test Case    ⋯
│ psid_test_gfoll_inverter      │ PSID Two Bus Grid Following Inverter Test Ca ⋯
│ psid_test_ieee_9bus           │ PSID IEEE 9-bus system with Anderson-Fouad M ⋯
│ psid_test_indmotor            │ PSID System without Induction Motor Test Cas ⋯
│ psid_test_omib                │ PSID OMIB Test Case                          ⋯
│ psid_test_pvs                 │ PSID OMIB with Periodic Variable Source Test ⋯
│ psid_test_threebus_5shaft     │ PSID Three Bus 5-shaft Test Case             ⋯
│ ⋮                             │ ⋮                                            ⋱
└───────────────────────────────┴───────────────────────────────────────────────
                                                    1 column and 13 rows omitted

Category: PSISystems

┌──────────────────────────────────┬────────────────────────────────────────────
│ Name                             │ Descriptor                                ⋯
├──────────────────────────────────┼────────────────────────────────────────────
│ 2Area 5 Bus System               │ PSI test system with two areas connected  ⋯
│ 5_bus_hydro_ed_sys               │ 5-Bus hydro economic dispatch data        ⋯
│ 5_bus_hydro_ed_sys_with_targets  │ 5-Bus hydro economic dispatch data with e ⋯
│ 5_bus_hydro_uc_sys               │ 5-Bus hydro unit commitment data          ⋯
│ 5_bus_hydro_uc_sys_with_targets  │ 5-Bus hydro unit commitment data with ene ⋯
│ 5_bus_hydro_wk_sys               │ 5-Bus hydro system for weekly dispatch    ⋯
│ 5_bus_hydro_wk_sys_with_targets  │ 5-Bus hydro system for weekly dispatch wi ⋯
│ 5_bus_matpower_AGC               │ matpower 5-Bus system with AGC time serie ⋯
│ 5_bus_matpower_DA                │ matpower 5-Bus system with DA time series ⋯
│ 5_bus_matpower_RT                │ matpower 5-Bus system with RT time series ⋯
│ AC_TWO_RTO_RTS_1Hr_sys           │ Two Area RTO System Connected via AC with ⋯
│ AC_TWO_RTO_RTS_5min_sys          │ Two Area RTO System Connected via AC with ⋯
│ HVDC_TWO_RTO_RTS_1Hr_sys         │ Two Area RTO System Connected via HVDC wi ⋯
│ HVDC_TWO_RTO_RTS_5min_sys        │ Two Area RTO System Connected via HVDC wi ⋯
│ MTHVDC_two_RTS_DA_sys_noForecast │ Two RTS systems connected by two multi-te ⋯
│ RTS_GMLC_DA_sys                  │ RTS-GMLC Full system from git repo for da ⋯
│ ⋮                                │ ⋮                                         ⋱
└──────────────────────────────────┴────────────────────────────────────────────
                                                    1 column and 12 rows omitted

Category: PSITestSystems

┌────────────────────────────────┬──────────────────────────────────────────────
│ Name                           │ Descriptor                                  ⋯
├────────────────────────────────┼──────────────────────────────────────────────
│ batt_test_case_b_sys           │ test system for Storage Energy Target formu ⋯
│ batt_test_case_c_sys           │ test system for Storage Energy Target formu ⋯
│ batt_test_case_d_sys           │ test system for Storage Energy Target formu ⋯
│ batt_test_case_e_sys           │ test system for Storage Energy Target formu ⋯
│ batt_test_case_f_sys           │ test system for Storage Energy Target formu ⋯
│ c_duration_test                │ 1 Bus for duration testing                  ⋯
│ c_fixed_market_bid_cost        │ 1 bus system with a Fixed MarketBidCost Mod ⋯
│ c_linear_cost_test             │ 1 Bus linear cost for testing               ⋯
│ c_linear_fuel_test             │ 1 Bus linear fuel curve testing             ⋯
│ c_linear_fuel_test_ts          │ 1 Bus linear fuel curve testing             ⋯
│ c_market_bid_cost              │ 1 bus system with MarketBidCost Model       ⋯
│ c_non_convex_io_pwl_cost_test  │ 1 Bus PWL sos testing                       ⋯
│ c_pwl_incremental_cost_test    │ 1 Bus PWL incremental cost curve testing    ⋯
│ c_pwl_incremental_fuel_test    │ 1 Bus PWL incremental (marginal) fuel curve ⋯
│ c_pwl_incremental_fuel_test_ts │ 1 Bus PWL incremental (marginal) fuel curve ⋯
│ c_pwl_io_cost_test             │ 1 Bus PWL I/O cost curve testing            ⋯
│ ⋮                              │ ⋮                                           ⋱
└────────────────────────────────┴──────────────────────────────────────────────
                                                    1 column and 55 rows omitted

Category: PSSEParsingTestSystems

┌────────────────────────────────────────────┬──────────────────────────────────
│ Name                                       │ Descriptor                      ⋯
├────────────────────────────────────────────┼──────────────────────────────────
│ Base_Eastern_Interconnect_515GW            │ Synthetic Eastern Interconnecti ⋯
│ PSSE 30 Test System                        │ PSSE 30 Test system             ⋯
│ isolated_bus_test_system                   │ PSSE isolated bus test system   ⋯
│ psse_14_network_reduction_test_system      │ PSSE network reduction test sys ⋯
│ psse_14_tap_correction_test_system         │ PSSE tap correction test system ⋯
│ psse_14_zero_impedance_branch_test_system  │ PSSE zero impedance branch test ⋯
│ psse_4_zero_impedance_3wt_test_system      │ PSSE zero impedance 3-winding t ⋯
│ psse_ACTIVSg2000_sys                       │ PSSE ACTIVSg2000 Test system    ⋯
│ psse_RTS_GMLC_sys                          │ PSSE .raw RTS-GMLC system       ⋯
│ psse_ybus_14_test_system                   │ PSSE ybus test system           ⋯
│ pti_case10_voltage_winding_correction_sys  │ PSSE case10 winding voltage cor ⋯
│ pti_case11_with_synchronous_condensers_sys │ PSSE Case 11 with Synch. Conden ⋯
│ pti_case14_sys                             │ PSSE 14-bus Test system         ⋯
│ pti_case14_with_interruptible_loads_sys    │ PSSE with interruptible loads T ⋯
│ pti_case14_with_pst3w_sys                  │ PSSE Case 14 with PST3W         ⋯
│ pti_case16_complete_sys                    │ PSSE Case 16 with All Network C ⋯
│ ⋮                                          │ ⋮                               ⋱
└────────────────────────────────────────────┴──────────────────────────────────
                                                    1 column and 21 rows omitted
…
